{
    "$schema": "https://deno.land/x/deno/cli/schemas/config-file.v1.json",
    "tasks": {
        "serve": "deno run --allow-net --allow-write --allow-read app.ts",
        "dev": "deno run --allow-net --allow-write --allow-read --watch app.ts"
    },
    "compilerOptions": {
        "allowJs": true,
        "lib": ["deno.window"],
        "strict": true
    },
    "lint": {
        "files": {
            "include": ["server", "website", "app.ts", "deps.ts"]
        },
        "rules": {
            "tags": ["recommended"],
            "include": ["ban-untagged-todo"]
        }
    },
    "fmt": {
        "files": {
            "include": ["server/", "website", "app.ts", "deps.ts"]
        },
        "options": {
            "useTabs": false,
            "lineWidth": 80,
            "indentWidth": 4,
            "singleQuote": true,
            "proseWrap": "preserve"
        }
    }
}
